Assignment 5 - DESeq2
…
tail(rnk_list)

##       Cpa1      Bmp10      Troap    Or51af1      Tnni1       Dlk1 
##  -8.798726  -9.230116  -9.251710  -9.392386  -9.859226 -10.275799

Perform a GSEA using a ranked list log2FoldChange values for all
genes discovered in the DESeq2 results against the C2 Canonical Pathways
gene set collection. As recommended, please set the minSize and maxSize
parameters to 15 and 500, respectively. Before running fgsea, you will
have to load the GMT pathways file in an appropriate format for
fgsea. Otherwise, run fgsea using default parameters and
the fgsea() function.

## # A tibble: 986 × 8
##    pathway                  pval     padj log2err     ES   NES  size leadingEdge
##    <chr>                   <dbl>    <dbl>   <dbl>  <dbl> <dbl> <int> <list>     
##  1 REACTOME_THE_CITRIC… 1.62e-22 1.59e-19   1.23   0.623  2.85   163 <chr [130]>
##  2 REACTOME_MITOTIC_SP… 5.47e-21 2.70e-18   1.19  -0.705 -2.74   107 <chr [32]> 
##  3 REACTOME_CELL_CYCLE… 3.51e-20 1.15e-17   1.16  -0.549 -2.41   275 <chr [62]> 
##  4 REACTOME_AMPLIFICAT… 1.47e-19 3.61e-17   1.14  -0.724 -2.74    90 <chr [31]> 
##  5 REACTOME_RESOLUTION… 3.74e-18 7.38e-16   1.10  -0.671 -2.62   116 <chr [36]> 
##  6 REACTOME_RESPIRATOR… 5.15e-18 7.51e-16   1.10   0.678  2.85    96 <chr [87]> 
##  7 REACTOME_RESPIRATOR… 5.33e-18 7.51e-16   1.10   0.637  2.75   119 <chr [103]>
##  8 REACTOME_MITOTIC_PR… 1.45e-17 1.79e-15   1.08  -0.585 -2.45   187 <chr [42]> 
##  9 REACTOME_MITOTIC_ME… 1.28e-16 1.40e-14   1.05  -0.559 -2.39   219 <chr [41]> 
## 10 REACTOME_SEPARATION… 4.10e-15 4.04e-13   0.997 -0.569 -2.39   181 <chr [36]> 
## # ℹ 976 more rows
…
